{
  "type": "service_account",
  "project_id": "steerwise-meshantra-dev2",
  "private_key_id": "100b290d520c431d54b766d23d4884a95b864092",
  "private_key": "-----BEGIN PRIVATE KEY-----\nMIIEvQIBADANBgkqhkiG9w0BAQEFAASCBKcwggSjAgEAAoIBAQDKfmPaQqEW23Hd\ngTAXyhIJBM4Kxh0lT5zCxnFP+gNplPPduzTNRQH+YSmd/idmRZrKyr3A5hfuQon8\nVAfgGNdrV8tlvGiDUFn6aQRMY2/o5AVa8JwzWH4KQ/MjK4b0tHqlwio9tjDFo6Ez\nGSGHrfj6WKommb1KiRtECw7T/IxUYct/7PRwFWtXot1JQ8O16F/ON9q8jW6USEb9\nyXrCHeQ9a1ixuDek72niCshk5OncY/D1r7vyqcs2vZvtU2qIU6bgLqbM2BNuqmk5\nbmEIT9eKuekL5h6AXkbQ2IQkkToedttnu4817p9/L5Zc1SjOXKxrkfkZObSTSMPF\nOTzJxNpDAgMBAAECggEABfiRIDP7xQ1Gf8YZ8XGjc4GhQ78Qx/Nfh3zLhZS1Og1K\n3ZxyE6V3yBT8YazHY6QkytsMml4OkZeDsx2VN93zqDYoCMF0AX9Cj/g9yLTb7W2f\n3M0ghgETgmD7j+tuKNQTk8S0cypmqMVI8RVKIFKYd2Va6xV4d/SwCaMb1lNpnelQ\n5Xo1jtVZuq/hzeTpjFOWcG2KX/6b1r3MFwAVxu1RBfn+okKzNK/JLyG5AWS7uqE+\n3g/jse2fuRwTGetaYGC2/dsCmq74XxgKHA9gpwZOHlUPoHtoi1ujghcPfIkZrqG5\nnlp1eI+mog8Fb+u41PCmff5GX+2W09Dr4cQxWIW08QKBgQDnZKbLYJ4HVFnwJSXW\nhr96Brp2cOCW9xdA2byznt5L35TRgO+oLf3Q+2CmVT1ehj9bansqRji4RYe8Ef0V\nnw106IRR02vavTo+8Av/KdoRIxLfXEumeKXatlfc7/YbkREUj4u+L92pMH94LkmZ\nEMmMtG1clTx8PCEDfmLB8Y/V8QKBgQDgBv31hgo58scKLo2sX9MnWayT2RcKK+ku\nTmrcmKvljuqEPg1zIYBJGSX5pGM9Q1XdGoE8Ufzxdl7Yo07fxsDhanN+i2VTYKSH\nzERqbSMHKjp7vNiHKazIVtV9mM8E43Mfhfp0OaXEeHZLfppMbIE/0hDCHETrUjiM\ndKmwmWivcwKBgAX4b+FRheJUh9mNa9OEOI6Se98wfGsIxx3SQG82CzBT/YgGVqi1\nPxZUViMUkffNaPcX4UOu+imvCZiNskULjJJWqYte9Cp5tXYIRZb44nqMuCDxRbZu\n6ICjMdMukeAWNyWbqpRmscZ6zN8x+o4rg7fQs/2ukBf4iTWI3k14yShRAoGBAMuO\nDts0O76Dlc7uldP2DcpHdMOyEXkwhOOKZRajsi0XOoeGSno+Cm5g51x5vaJAuJf6\nKUtBw+8yeuOlH1m9IiyvqNlml163BUhOliuNlrI/8HvWD3hgqZovLDS+z/vFHymZ\ndwR8DN8EBZh7JIAkZxwyJv/457ZaMv+MUVMhUTl5AoGAO2cz/AQmbkGzNFCnRTLr\nrWt9l2wEsBX5yohXdoeM6pA7yTn8sO7nw6W9KUxylIAEYJJhIDD3UigmvuaKKKyQ\nsUlqdt+VYSkI+MeZIOGYeCJBsYuT2TF0Cv5PC/RG6gGzc3xuqeZbfVdg83sRlGM0\nX9AHirJj4fZWfYHzFDpdN/0=\n-----END PRIVATE KEY-----\n",
  "client_email": "meshantra-sa@steerwise-meshantra-dev2.iam.gserviceaccount.com",
  "client_id": "111247961515538794637",
  "auth_uri": "https://accounts.google.com/o/oauth2/auth",
  "token_uri": "https://oauth2.googleapis.com/token",
  "auth_provider_x509_cert_url": "https://www.googleapis.com/oauth2/v1/certs",
  "client_x509_cert_url": "https://www.googleapis.com/robot/v1/metadata/x509/meshantra-sa%40steerwise-meshantra-dev2.iam.gserviceaccount.com"
}
